<svg contentScriptType="text/ecmascript" zoomAndPan="magnify" xmlns:xlink="http://www.w3.org/1999/xlink" contentStyleType="text/css" version="1.1" width="163" xmlns:sodipodi="http://sodipodi.sourceforge.net/DTD/sodipodi-0.dtd" inkscape:textFontSize="fsize/elementScale" xmlns:inkscape="http://www.inkscape.org/namespaces/inkscape" preserveAspectRatio="xMidYMid meet" xmlns:myscada="http://www.myscada.org" viewBox="0 0 163 63" inkscape:voditka="{&quot;voditkoHorValues&quot;:[],&quot;voditkoVerValues&quot;:[]}" height="63" xmlns="http://www.w3.org/2000/svg" inkscape:componentData="{&quot;attr&quot;:&quot;Comp&quot;,&quot;name&quot;:&quot;Display&quot;,&quot;desc&quot;:&quot;Digital display&quot;,&quot;author&quot;:&quot;mySCADA Team&quot;,&quot;uniqueID&quot;:&quot;0320cbc288&quot;,&quot;MasterID&quot;:&quot;563918601&quot;,&quot;list&quot;:[{&quot;variableName&quot;:&quot;color1&quot;,&quot;name&quot;:&quot;Base color&quot;,&quot;desc&quot;:&quot;Set color&quot;,&quot;value&quot;:&quot;#0099CC&quot;,&quot;valueSub&quot;:&quot;&quot;,&quot;type&quot;:4,&quot;hide&quot;:false,&quot;translate&quot;:false,&quot;translations&quot;:{}},{&quot;variableName&quot;:&quot;color3&quot;,&quot;name&quot;:&quot;Stroke color&quot;,&quot;desc&quot;:&quot;Set color&quot;,&quot;value&quot;:&quot;#0099CC&quot;,&quot;valueSub&quot;:&quot;&quot;,&quot;type&quot;:4,&quot;hide&quot;:false,&quot;translate&quot;:false,&quot;translations&quot;:{}},{&quot;variableName&quot;:&quot;txt&quot;,&quot;name&quot;:&quot;Text&quot;,&quot;desc&quot;:&quot;Edit text&quot;,&quot;value&quot;:&quot;text&quot;,&quot;valueSub&quot;:&quot;&quot;,&quot;type&quot;:1,&quot;hide&quot;:false,&quot;translate&quot;:true,&quot;translations&quot;:{}},{&quot;variableName&quot;:&quot;size&quot;,&quot;name&quot;:&quot;Text size&quot;,&quot;desc&quot;:&quot;Set size&quot;,&quot;value&quot;:&quot;12&quot;,&quot;valueSub&quot;:&quot;&quot;,&quot;type&quot;:2,&quot;hide&quot;:false,&quot;translate&quot;:false,&quot;translations&quot;:{}},{&quot;variableName&quot;:&quot;color2&quot;,&quot;name&quot;:&quot;Text color&quot;,&quot;desc&quot;:&quot;Set color&quot;,&quot;value&quot;:&quot;#FFFFFF&quot;,&quot;valueSub&quot;:&quot;&quot;,&quot;type&quot;:4,&quot;hide&quot;:false,&quot;translate&quot;:false,&quot;translations&quot;:{}},{&quot;variableName&quot;:&quot;glow&quot;,&quot;name&quot;:&quot;Glow&quot;,&quot;desc&quot;:&quot;Set glow&quot;,&quot;value&quot;:&quot;0&quot;,&quot;valueSub&quot;:&quot;&quot;,&quot;type&quot;:5,&quot;hide&quot;:false,&quot;translate&quot;:false,&quot;translations&quot;:{}}]}">
<defs>
<linearGradient gradientTransform="rotate(270.0,0.5,0.5)" x1="0%" xmlns:xlink="http://www.w3.org/1999/xlink" gradientUnits="objectBoundingBox" x2="100%" y1="0%" y2="0%" xlink:type="simple" xlink:actuate="onLoad" id="prefix_id_lin0001" xlink:show="other" spreadMethod="pad">
<stop style="stop-color:#333333;stop-opacity:0.19;" offset="0%"/>
<stop style="stop-color:#ffffff;stop-opacity:0.31;" offset="100%"/>
</linearGradient>
</defs>
<rect x="0" width="163" id="prefix_id_pozadiNoSeL" height="63" y="0" style="fill:#ffffff;stoke:#ffffff;"/>
<g inkscape:groupmode="layer" id="layer0" style="display:inline;opacity:1.0;" inkscape:layerlabel="Background">
<rect x="1.000005746816612" y="0.9999938568511197" width="160" inkscape:vypln="color1,100" style="fill:#0099CC;stroke:#0099CC; stroke-width:2;stroke-dasharray:none;stroke-linecap:butt;stroke-linejoin:miter;" rx="10.0" ry="10.0" id="prefix_id_rect0001" height="60.00000000000003" inkscape:vyplnStroke="color3"/>
<rect x="1.000005746816612" y="0.9999938568510629" width="160" style="visibility:hidden;stroke-linejoin:miter;stroke-dasharray:none;stroke-width:1;fill:url(#prefix_id_lin0001);stroke:none;stroke-linecap:butt;" rx="10.0" ry="10.0" height="60.00000000000003" id="prefix_id_rect0002" inkscape:opac="glow;1;1"/>
</g>
<g inkscape:groupmode="layer" id="layer1" style="display:inline;opacity:1.0;" inkscape:componentalign="cc" inkscape:layerlabel="text">
<text x="251.8181818181818" y="239.0909090909091" transform="matrix(1 0 0 1 -171.0981616973877 -202.75491905212402)" inkscape:vypln="color2,100" inkscape:textik="txt" style="font-weight:bold;text-anchor:middle;font-size:12pt;font-family:&apos;Ubuntu&apos;;font-style:normal;fill:#FFFFFF;stroke:none;" id="prefix_id_text0001" inkscape:textFontSize="size">
text</text>
</g>
<g inkscape:groupmode="layer" myscada:layerActiveArea="YES" id="layer2" inkscape:layerlabel="ActiveArea"/>
</svg>
